…
```r
stepsPerDay <- activityDT %>% 
      filter(!is.na(steps)) %>%
      group_by(date) %>%
      summarize(steps = sum(steps)) %>%
      print
```

```
## # A tibble: 53 × 2
##          date steps
##        <date> <int>
## 1  2012-10-02   126
## 2  2012-10-03 11352
## 3  2012-10-04 12116
## 4  2012-10-05 13294
## 5  2012-10-06 15420
## 6  2012-10-07 11015
## 7  2012-10-09 12811
## 8  2012-10-10  9900
## 9  2012-10-11 10304
## 10 2012-10-12 17382
## # ... with 43 more rows
```
…
What is the average daily activity pattern?

1. Make a time series plot (i.e. type = "l") of the 5-minute interval (x-axis) and the average number of steps taken, averaged across all days (y-axis)

```r
interval5 <- activityDT %>% 
      filter(!is.na(steps)) %>%
      group_by(interval) %>%
      summarize(meanSteps = mean(steps)) %>%
      print
```

```
## # A tibble: 288 × 2
##    interval meanSteps
##       <int>     <dbl>
## 1         0 1.7169811
## 2         5 0.3396226
## 3        10 0.1320755
## 4        15 0.1509434
## 5        20 0.0754717
## 6        25 2.0943396
## 7        30 0.5283019
## 8        35 0.8679245
## 9        40 0.0000000
## 10       45 1.4716981
## # ... with 278 more rows
```
…
```
## [1] 0
```

```r
stepsALL <- activityDTfull %>%
      filter(!is.na(steps)) %>%
      group_by(date) %>%
      summarize(steps = sum(steps)) %>%
      print()
```

```
## # A tibble: 61 × 2
##          date    steps
##        <date>    <dbl>
## 1  2012-10-01 10766.19
## 2  2012-10-02   126.00
## 3  2012-10-03 11352.00
## 4  2012-10-04 12116.00
## 5  2012-10-05 13294.00
## 6  2012-10-06 15420.00
## 7  2012-10-07 11015.00
## 8  2012-10-08 10766.19
## 9  2012-10-09 12811.00
## 10 2012-10-10  9900.00
## # ... with 51 more rows
```
…
```r
activityDTfull$weekType <-  ifelse(as.POSIXlt(activityDTfull$date)$wday %in% c(0,6), 'weekend', 'weekday')
```

2. Make a panel plot containing a time series plot (i.e. type = "l") of the 5-minute interval (x-axis) and the average number of steps taken, averaged across all weekday days or weekend days (y-axis). See the README file in the GitHub repository to see an example of what this plot should look like using simulated data.

```r
activityDTfullMean <- activityDTfull %>%
      group_by(interval, weekType) %>%
      summarize(steps = mean(steps)) %>%
      print
```

```
## Source: local data frame [576 x 3]
## Groups: interval [?]
## 
##    interval weekType       steps
##       <int>    <chr>       <dbl>
## 1         0  weekday 2.251153040
## 2         0  weekend 0.214622642
## 3         5  weekday 0.445283019
## 4         5  weekend 0.042452830
## 5        10  weekday 0.173165618
## 6        10  weekend 0.016509434
## 7        15  weekday 0.197903564
## 8        15  weekend 0.018867925
## 9        20  weekday 0.098951782
## 10       20  weekend 0.009433962
## # ... with 566 more rows
```
…
